[{
  "id": "6104942438c14ec7bd21c6cd5bd995272b3faff6",
  "short_id": "6104942438c",
  "title": "Sanitize for network graph",
  "author_name": "randx",
  "author_email": "dmitriy.zaporozhets@gmail.com",
  "committer_name": "Dmitriy",
  "committer_email": "dmitriy.zaporozhets@gmail.com",
  "message": "Sanitize for network graph",
  "parent_ids": [
    "ae1d9fb46aa2b07ee9836d49862ec4e2c46fbbba"
  ],
  "last_pipeline": {
    "id": 8,
    "ref": "master",
    "sha": "2dc6aa325a317eda67812f05600bdf0fcdc70ab0",
    "status": "created",
    "web_url": "https://gitlab.com/gitlab-org/gitlab-ce/pipelines/54268416",
    "created_at": "2019-11-04T15:38:53.154Z",
    "updated_at": "2019-11-04T15:39:03.935Z"
  },
  "stats": {
    "additions": 15,
    "deletions": 10,
    "total": 25
  },
  "status": "running",
  "project_id": 13083
},
{
"id": "6104942438c14ec7bd21c6cd5bd995272b3faff6",
"short_id": "6104942438c",
"title": "Sanitize for network graph",
"author_name": "randx",
"author_email": "dmitriy.zaporozhets@gmail.com",
"committer_name": "Dmitriy",
"committer_email": "dmitriy.zaporozhets@gmail.com",
"message": "Sanitize for network graph",
"parent_ids": [
"ae1d9fb46aa2b07ee9836d49862ec4e2c46fbbba"
],
"last_pipeline": {
"id": 8,
"ref": "master",
"sha": "2dc6aa325a317eda67812f05600bdf0fcdc70ab0",
"status": "created",
"web_url": "https://gitlab.com/gitlab-org/gitlab-ce/pipelines/54268416",
"created_at": "2019-11-04T15:38:53.154Z",
"updated_at": "2019-11-04T15:39:03.935Z"
},
"stats": {
"additions": 15,
"deletions": 10,
"total": 25
},
"status": "running",
"project_id": 13083
}]